Econ4261 - Recitation 2 - Working with Data in R and the Tidyverse
…
The function summarize provides a useful way for us to look at summary statistics for data. For example, we can use it to calculate the mean and the variance of log wages:

D %>%
  summarize(m = mean(log(Wage)),v = var(log(Wage)))

         m       v
1 2.881766 0.43848

Suppose we wanted to make this calculation separately by year? We can do this using the group_by command, which tells R to perform operations separately by groups of variables:

D %>%
  group_by(YEAR) %>%
  summarize(m = mean(log(Wage)),v = var(log(Wage)))

# A tibble: 29 × 3
    YEAR     m     v
   <int> <dbl> <dbl>
 1  1994  2.31 0.355
 2  1995  2.34 0.351
 3  1996  2.35 0.327
 4  1997  2.38 0.325
 5  1998  2.43 0.358
 6  1999  2.48 0.348
 7  2000  2.52 0.333
 8  2001  2.57 0.338
 9  2002  2.61 0.357
10  2003  2.64 0.349
# ℹ 19 more rows
…
